# WaveFront *.obj file (generated by Cheetah3D)

mtllib shape.mtl

g Polyhedra
v 0.100887 0.000000 -0.489716
v 0.201774 -0.163239 -0.427365
v 0.365013 -0.100887 -0.326477
v 0.365013 0.100887 -0.326477
v 0.201774 0.163239 -0.427365
v 0.100887 0.000000 0.489716
v 0.201774 0.163239 0.427365
v 0.365013 0.100887 0.326477
v 0.365013 -0.100887 0.326477
v 0.201774 -0.163239 0.427365
v -0.100887 0.000000 0.489716
v -0.201774 -0.163239 0.427365
v -0.365013 -0.100887 0.326477
v -0.365013 0.100887 0.326477
v -0.201774 0.163239 0.427365
v -0.100887 0.000000 -0.489716
v -0.201774 0.163239 -0.427365
v -0.365013 0.100887 -0.326477
v -0.365013 -0.100887 -0.326477
v -0.201774 -0.163239 -0.427365
v 0.489716 0.100887 0.000000
v 0.427365 0.201774 0.163239
v 0.326477 0.365013 0.100887
v 0.326477 0.365013 -0.100887
v 0.427365 0.201774 -0.163239
v 0.000000 0.489716 0.100887
v 0.163239 0.427365 0.201774
v 0.100887 0.326477 0.365013
v -0.100887 0.326477 0.365013
v -0.163239 0.427365 0.201774
v -0.489716 0.100887 0.000000
v -0.427365 0.201774 -0.163239
v -0.326477 0.365013 -0.100887
v -0.326477 0.365013 0.100887
v -0.427365 0.201774 0.163239
v 0.000000 0.489716 -0.100887
v -0.163239 0.427365 -0.201774
v -0.100887 0.326477 -0.365013
v 0.100887 0.326477 -0.365013
v 0.163239 0.427365 -0.201774
v -0.489716 -0.100887 0.000000
v -0.427365 -0.201774 0.163239
v -0.326477 -0.365013 0.100887
v -0.326477 -0.365013 -0.100887
v -0.427365 -0.201774 -0.163239
v 0.000000 -0.489716 -0.100887
v 0.163239 -0.427365 -0.201774
v 0.100887 -0.326477 -0.365013
v -0.100887 -0.326477 -0.365013
v -0.163239 -0.427365 -0.201774
v 0.489716 -0.100887 0.000000
v 0.427365 -0.201774 -0.163239
v 0.326477 -0.365013 -0.100887
v 0.326477 -0.365013 0.100887
v 0.427365 -0.201774 0.163239
v 0.000000 -0.489716 0.100887
v -0.163239 -0.427365 0.201774
v -0.100887 -0.326477 0.365013
v 0.100887 -0.326477 0.365013
v 0.163239 -0.427365 0.201774

vt 0.000000 1.000000

vn 0.525731 -0.000000 -0.850651
vn 0.525731 0.000000 0.850651
vn -0.525731 -0.000000 0.850651
vn -0.525731 0.000000 -0.850651
vn 0.850651 0.525731 0.000000
vn 0.000000 0.850651 0.525731
vn -0.850651 0.525731 -0.000000
vn -0.000000 0.850651 -0.525731
vn -0.850651 -0.525731 0.000000
vn 0.000000 -0.850651 -0.525731
vn 0.850651 -0.525731 -0.000000
vn -0.000000 -0.850651 0.525731
vn 0.934173 0.000000 -0.356822
vn 0.934173 0.000000 0.356822
vn -0.934173 0.000000 0.356822
vn -0.934173 0.000000 -0.356822
vn 0.000000 0.356822 -0.934173
vn 0.000000 -0.356822 -0.934173
vn 0.000000 -0.356822 0.934173
vn 0.000000 0.356822 0.934173
vn 0.356822 0.934173 0.000000
vn -0.356822 0.934173 0.000000
vn -0.356822 -0.934173 0.000000
vn 0.356822 -0.934173 0.000000
vn 0.577350 0.577350 -0.577350
vn 0.577350 0.577350 0.577350
vn -0.577350 0.577350 0.577350
vn -0.577350 0.577350 -0.577350
vn -0.577350 -0.577350 0.577350
vn -0.577350 -0.577350 -0.577350
vn 0.577350 -0.577350 -0.577350
vn 0.577350 -0.577350 0.577350

usemtl default
f 5/1/1 4/1/1 3/1/1 2/1/1 1/1/1
f 10/1/2 9/1/2 8/1/2 7/1/2 6/1/2
f 15/1/3 14/1/3 13/1/3 12/1/3 11/1/3
f 20/1/4 19/1/4 18/1/4 17/1/4 16/1/4
f 25/1/5 24/1/5 23/1/5 22/1/5 21/1/5
f 30/1/6 29/1/6 28/1/6 27/1/6 26/1/6
f 35/1/7 34/1/7 33/1/7 32/1/7 31/1/7
f 40/1/8 39/1/8 38/1/8 37/1/8 36/1/8
f 45/1/9 44/1/9 43/1/9 42/1/9 41/1/9
f 50/1/10 49/1/10 48/1/10 47/1/10 46/1/10
f 55/1/11 54/1/11 53/1/11 52/1/11 51/1/11
f 60/1/12 59/1/12 58/1/12 57/1/12 56/1/12
f 21/1/13 51/1/13 52/1/13 3/1/13 4/1/13 25/1/13
f 51/1/14 21/1/14 22/1/14 8/1/14 9/1/14 55/1/14
f 31/1/15 41/1/15 42/1/15 13/1/15 14/1/15 35/1/15
f 41/1/16 31/1/16 32/1/16 18/1/16 19/1/16 45/1/16
f 1/1/17 16/1/17 17/1/17 38/1/17 39/1/17 5/1/17
f 16/1/18 1/1/18 2/1/18 48/1/18 49/1/18 20/1/18
f 6/1/19 11/1/19 12/1/19 58/1/19 59/1/19 10/1/19
f 11/1/20 6/1/20 7/1/20 28/1/20 29/1/20 15/1/20
f 36/1/21 26/1/21 27/1/21 23/1/21 24/1/21 40/1/21
f 26/1/22 36/1/22 37/1/22 33/1/22 34/1/22 30/1/22
f 46/1/23 56/1/23 57/1/23 43/1/23 44/1/23 50/1/23
f 56/1/24 46/1/24 47/1/24 53/1/24 54/1/24 60/1/24
f 40/1/25 24/1/25 25/1/25 4/1/25 5/1/25 39/1/25
f 23/1/26 27/1/26 28/1/26 7/1/26 8/1/26 22/1/26
f 15/1/27 29/1/27 30/1/27 34/1/27 35/1/27 14/1/27
f 33/1/28 37/1/28 38/1/28 17/1/28 18/1/28 32/1/28
f 43/1/29 57/1/29 58/1/29 12/1/29 13/1/29 42/1/29
f 50/1/30 44/1/30 45/1/30 19/1/30 20/1/30 49/1/30
f 53/1/31 47/1/31 48/1/31 2/1/31 3/1/31 52/1/31
f 60/1/32 54/1/32 55/1/32 9/1/32 10/1/32 59/1/32

